﻿Description,Date,ReleaseNum,UAT_Defects,Live_Defects
Ranking,21-Mar-18,4.6.0,1,0
Ranking,09-May-18,4.7.0,2,1
GDPR,24-May-18,4.7.1,0,2
Ranking,26-Jun-18,4.9.0,1,0
ORIO & Public Name,31-Jul-18,4.10.0,2,0
WebService 1.4,04-Sep-18,4.11.0,1,0
SF Bug,12-Sep-18,4.11.2,0,0
Age Range text,24-Oct-18,4.11.3,0,0
Age Range Clinical,30-Oct-18,4.12.0,0,0
PU / SF Fix,07-Nov-18,4.12.1,0,0
Date Picker / SF / PU,08-Jan-19,4.14.0,1
Date Picker / SF / PU,09-Jan-19,4.14.1,1
Future,21-Jan-19,4.16.0,1
